…
Creating an histogram with the total nb of steps per day and calculating mean and median
----------------------------------------------------------------------------------------

Now you can find the total of the steps per day. You need to install the
dplyr package.

    by_day <- group_by(data, date)
    steps_by_day <- summarise(by_day, total = sum(steps))
    steps_by_day

    ## # A tibble: 53 × 2
    ##          date total
    ##        <fctr> <int>
    ## 1  2012-10-02   126
    ## 2  2012-10-03 11352
    ## 3  2012-10-04 12116
    ## 4  2012-10-05 13294
    ## 5  2012-10-06 15420
    ## 6  2012-10-07 11015
    ## 7  2012-10-09 12811
    ## 8  2012-10-10  9900
    ## 9  2012-10-11 10304
    ## 10 2012-10-12 17382
    ## # ... with 43 more rows
…
